<svg width="6" height="11" viewBox="0 0 6 11" fill="none" xmlns="http://www.w3.org/2000/svg">
<path d="M5.77358 0.165C5.54717 -0.055 5.20755 -0.055 4.98113 0.165L0.339623 4.73C-0.113208 5.17 -0.113208 5.83 0.339623 6.27L5.03774 10.835C5.26415 11.055 5.60377 11.055 5.83019 10.835C6.0566 10.615 6.0566 10.285 5.83019 10.065L1.5283 5.885C1.30189 5.665 1.30189 5.335 1.5283 5.115L5.77358 0.935C6 0.715 6 0.385 5.77358 0.165Z" fill="#333333"/>
</svg>
