   <svg width="48" height="48" viewBox="0 0 48 48" fill="none" xmlns="http://www.w3.org/2000/svg">
        <path d="M37.48 37.66H32.04C31.65 37.66 31.34 37.98 31.34 38.36C31.34 38.75 31.66 39.06 32.04 39.06H35.33V39.8C35.33 41.08 34.29 42.12 33.01 42.12H8.19C7.66 42.12 7.16 41.94 6.75 41.61C6.25 41.21 5.96 40.59 5.96 39.91L5.87 28.5V16.61C5.87 16.22 5.55 15.91 5.17 15.91C4.78 15.91 4.47 16.23 4.47 16.61V28.5L4.55 39.93C4.56 41.04 5.04 42.06 5.87 42.72C6.53 43.24 7.35 43.53 8.19 43.53H30.87V44.27C30.87 45.55 29.83 46.59 28.55 46.59H3.72C3.19 46.59 2.69 46.41 2.27 46.08C1.77 45.68 1.48 45.06 1.48 44.38L1.41 32.96V12.66C1.41 11.38 2.45 10.34 3.73 10.34H4.47V13.46C4.47 13.85 4.79 14.16 5.17 14.16C5.56 14.16 5.87 13.84 5.87 13.46V8.19C5.87 6.91 6.91 5.87 8.19 5.87H8.93V24.03L9.01 35.46C9.02 36.57 9.5 37.59 10.33 38.25C10.99 38.78 11.81 39.07 12.65 39.07H28.9C29.29 39.07 29.6 38.75 29.6 38.37C29.6 37.98 29.29 37.67 28.9 37.67H12.66C12.13 37.67 11.63 37.5 11.21 37.17C10.71 36.77 10.42 36.15 10.42 35.47L10.34 24.05V3.72C10.34 2.44 11.38 1.4 12.66 1.4H24.77C27.07 1.4 28.94 3.27 28.94 5.57V8.54C28.94 10.59 30.61 12.26 32.67 12.26H35.63C37.92 12.26 39.79 14.12 39.8 16.42V35.34C39.8 36.62 38.76 37.66 37.48 37.66ZM31.69 3.74L37.47 9.52C38.24 10.29 38.84 11.2 39.23 12.18C38.26 11.36 37 10.86 35.63 10.86H32.67C31.39 10.86 30.35 9.82 30.35 8.54V5.58C30.35 4.21 29.85 2.96 29.03 1.98C30.01 2.38 30.91 2.97 31.69 3.74ZM41.21 15.16C41.21 12.65 40.23 10.3 38.46 8.53L32.68 2.75C30.91 0.98 28.55 0 26.05 0H12.66C10.6 0 8.93 1.67 8.93 3.72V4.46H8.19C6.14 4.46 4.47 6.13 4.47 8.18V8.92H3.72C1.67 8.94 0 10.61 0 12.66V32.97L0.08 44.39C0.09 45.5 0.57 46.52 1.4 47.18C2.06 47.71 2.88 48 3.72 48H28.54C30.59 48 32.26 46.33 32.26 44.28V43.54H33C35.05 43.54 36.72 41.87 36.72 39.82V39.08H37.46C39.51 39.08 41.18 37.41 41.18 35.35V15.16H41.21Z" fill="#0045FF" />
        <path d="M36.4999 19.6914H13.6399C13.2499 19.6914 12.9399 20.0114 12.9399 20.3914C12.9399 20.7714 13.2499 21.0914 13.6399 21.0914H36.4999C36.8899 21.0914 37.1999 20.7714 37.1999 20.3914C37.1999 20.0114 36.8899 19.6914 36.4999 19.6914Z" fill="#0045FF" />
        <path d="M36.4999 23.0391H13.6399C13.2499 23.0391 12.9399 23.3591 12.9399 23.7391C12.9399 24.1191 13.2499 24.4391 13.6399 24.4391H36.4999C36.8899 24.4391 37.1999 24.1191 37.1999 23.7391C37.1999 23.3591 36.8899 23.0391 36.4999 23.0391Z" fill="#0045FF" />
        <path d="M22.0399 26.3789H13.6399C13.2499 26.3789 12.9399 26.6889 12.9399 27.0789C12.9399 27.4689 13.2599 27.7789 13.6399 27.7789H22.0399C22.4299 27.7789 22.7399 27.4589 22.7399 27.0789C22.7399 26.6989 22.4299 26.3789 22.0399 26.3789Z" fill="#0045FF" />
        <path d="M15.8399 10.3612H14.8299V11.6212H15.8599C16.3199 11.6212 16.5899 11.4112 16.5899 11.0012C16.5899 10.5912 16.2999 10.3612 15.8399 10.3612ZM15.7399 8.14125H14.8299V9.33125H15.7399C16.1999 9.33125 16.4499 9.13125 16.4499 8.74125C16.4499 8.35125 16.1999 8.14125 15.7399 8.14125ZM16.0999 12.7412H13.4399V7.03125H16.0099C17.1699 7.03125 17.8599 7.61125 17.8599 8.51125C17.8599 9.20125 17.4399 9.65125 16.8899 9.81125C17.5599 9.95125 17.9899 10.5312 17.9899 11.1912C17.9999 12.1312 17.3099 12.7412 16.0999 12.7412Z" fill="#0045FF" />
        <path d="M20.5599 5.01172H21.8999L19.7199 14.2617H18.3799L20.5599 5.01172Z" fill="#0045FF" />
        <path d="M23.8802 7.03125V11.6712H25.7002V12.7412H22.4902V7.03125H23.8802Z" fill="#0045FF" />
    </svg>