<svg width="24" height="24" viewBox="0 0 24 24" fill="none" xmlns="http://www.w3.org/2000/svg">
<path d="M24 9.6C24 4.32 19.68 -1.88833e-07 14.4 -4.19629e-07C9.12 -6.50426e-07 4.8 4.32 4.8 9.6C4.8 14.88 9.12 19.2 14.4 19.2C19.68 19.2 24 14.88 24 9.6ZM7.2 9.6C7.2 5.64 10.44 2.4 14.4 2.4C18.36 2.4 21.6 5.64 21.6 9.6C21.6 13.56 18.36 16.8 14.4 16.8C10.44 16.8 7.2 13.56 7.2 9.6ZM1.68 24L-9.75638e-07 22.32L5.04 17.28L6.72 18.96L1.68 24Z" fill="#0045FF"/>
</svg>
