<svg width="20" height="20" viewBox="0 0 20 20" fill="none" xmlns="http://www.w3.org/2000/svg">
<path d="M6.62616 10.028C6.62616 8.24146 8.11964 6.75267 9.91181 6.75267C11.704 6.75267 13.1975 8.24146 13.1975 10.028C13.1975 11.8146 11.704 13.3033 9.91181 13.3033C8.11964 13.3033 6.62616 11.8146 6.62616 10.028ZM4.83399 10.028C4.83399 12.8071 7.12398 15.0899 9.91181 15.0899C12.6996 15.0899 14.9896 12.8071 14.9896 10.028C14.9896 7.24893 12.7992 4.86686 9.91181 4.86686C7.02442 4.86686 4.83399 7.14968 4.83399 10.028ZM14.0935 4.66836C14.0935 5.36313 14.5914 5.85939 15.2883 5.85939C15.9853 5.85939 16.4831 5.36313 16.4831 4.66836C16.4831 3.97359 15.8857 3.47732 15.2883 3.47732C14.6909 3.47732 14.0935 4.07284 14.0935 4.66836ZM5.9292 18.0675C4.93355 18.0675 4.43573 17.869 4.03747 17.7697C3.14138 17.472 2.44442 16.7772 2.14573 15.8839C1.54834 14.2959 1.74747 7.14968 1.84703 5.95864C1.84703 4.86686 2.14573 3.77508 2.94225 2.98106C3.9379 1.98853 5.23225 1.49227 13.994 1.88928C15.0892 1.98853 16.1844 2.18704 16.9809 2.98106C17.9766 3.97359 18.4744 5.26387 18.0761 13.9981C18.0761 14.9906 17.877 15.4869 17.7775 15.8839C16.7818 18.1667 14.6909 18.4645 5.9292 18.0675ZM5.82964 0.10273C4.2366 0.201982 2.74312 0.598994 1.6479 1.69077C0.552688 2.88181 0.154428 4.27135 0.0548624 5.85939C0.0548624 6.85192 -0.243833 14.4944 0.552688 16.4794C1.05051 17.869 2.04616 18.8615 3.44008 19.3578C4.03747 19.6555 4.73442 19.854 5.82964 19.854C14.6909 20.251 17.9766 20.0525 19.3705 16.4794C19.5696 15.8839 19.7688 15.0899 19.8683 14.0974C20.2666 5.26387 19.7688 3.27882 18.2753 1.79003C16.9809 0.499741 15.587 -0.294282 5.82964 0.10273Z" fill="black"/>
</svg>
