<svg width="129" height="152" viewBox="0 0 129 152" fill="none" xmlns="http://www.w3.org/2000/svg">
<path d="M93.4021 148.199L64.4941 132.96L35.5862 148.199V94.168H93.4021V148.199Z" fill="#E3E7F1"/>
<path d="M64.0856 2.50293C67.2379 2.50293 69.9115 8.11653 72.9354 8.58433C73.0872 8.60772 73.2507 8.61942 73.4141 8.61942C76.1695 8.61942 79.7071 5.33312 82.4157 5.33312C82.7076 5.33312 82.9995 5.36821 83.268 5.46177C86.2452 6.40906 87.0041 12.5489 89.7478 13.9173C90.3082 14.1979 90.9737 14.2915 91.6976 14.2915C93.7291 14.2915 96.2509 13.4962 98.2824 13.4962C99.1697 13.4962 99.952 13.6483 100.559 14.081C103.069 15.8703 101.855 21.94 104.05 24.0802C106.245 26.2204 112.456 25.0392 114.278 27.4952C116.099 29.9394 113.04 35.3542 114.453 38.0674C115.854 40.7456 122.135 41.4941 123.104 44.4061C124.061 47.2597 119.426 51.4699 119.917 54.5106C120.395 57.4578 126.128 60.0774 126.128 63.1649C126.128 66.2524 120.384 68.8604 119.917 71.8192C119.426 74.8482 124.061 79.0584 123.104 81.9237C122.135 84.8358 115.854 85.5726 114.453 88.2624C113.04 90.9757 116.099 96.3904 114.278 98.8347C112.445 101.291 106.245 100.109 104.05 102.25C101.855 104.39 103.069 110.46 100.559 112.249C99.952 112.682 99.1697 112.834 98.2824 112.834C96.2626 112.834 93.7291 112.038 91.6976 112.038C90.9737 112.038 90.3082 112.144 89.7478 112.424C87.0041 113.793 86.2335 119.944 83.2564 120.88C82.9878 120.962 82.6959 121.008 82.4041 121.008C79.7071 121.008 76.1578 117.734 73.4141 117.734C73.2507 117.734 73.0872 117.746 72.9354 117.769C69.9115 118.225 67.2496 123.839 64.0972 123.839C60.9333 123.839 58.2713 118.225 55.2474 117.769C55.0956 117.746 54.9322 117.734 54.7687 117.734C52.0133 117.734 48.4757 121.008 45.7671 121.008C45.4752 121.008 45.1833 120.973 44.9148 120.88C41.9376 119.932 41.1787 113.793 38.435 112.424C37.8863 112.144 37.2208 112.05 36.4852 112.05C34.4537 112.05 31.9202 112.845 29.9004 112.845C29.0131 112.845 28.2308 112.693 27.6237 112.261C25.1135 110.471 26.3278 104.402 24.1328 102.25C21.9379 100.109 15.7266 101.291 13.9053 98.8347C12.0839 96.3904 15.1429 90.9757 13.7302 88.2624C12.3174 85.5726 6.04783 84.8241 5.07878 81.9237C4.12141 79.0584 8.74481 74.8482 8.25445 71.8192C7.77577 68.8604 2.04321 66.2524 2.04321 63.1649C2.04321 60.0774 7.78744 57.4695 8.25445 54.5106C8.73314 51.4699 4.10973 47.2597 5.05543 44.4061C6.02448 41.5058 12.2941 40.7573 13.7068 38.0674C15.1195 35.3542 12.0606 29.9511 13.8819 27.4952C15.7149 25.0392 21.9262 26.2204 24.1095 24.0802C26.3044 21.9283 25.0902 15.8586 27.6004 14.0693C28.2075 13.6366 28.9897 13.4845 29.877 13.4845C31.8969 13.4845 34.4304 14.2798 36.4619 14.2798C37.1858 14.2798 37.8513 14.1745 38.4117 13.9056C41.1554 12.5372 41.9259 6.39737 44.9031 5.45007C45.1716 5.36821 45.4635 5.32143 45.7554 5.32143C48.4524 5.32143 52.0017 8.60772 54.757 8.60772C54.9205 8.60772 55.0723 8.59603 55.2357 8.57264C58.2596 8.11653 60.9216 2.50293 64.0856 2.50293Z" fill="#A8C0E4"/>
<path d="M64.8678 104.144C87.4811 104.144 105.813 85.7812 105.813 63.1296C105.813 40.478 87.4811 22.1152 64.8678 22.1152C42.2544 22.1152 23.9226 40.478 23.9226 63.1296C23.9226 85.7812 42.2544 104.144 64.8678 104.144Z" fill="#E3E7F1"/>
<path d="M95.6436 90.1802C99.9518 83.6894 102.462 75.9006 102.462 67.527C102.462 44.8737 84.1318 26.5126 61.5168 26.5126C49.2228 26.5126 38.2013 31.939 30.7058 40.5232C38.0262 29.4246 50.5888 22.1152 64.8676 22.1152C87.4826 22.1152 105.813 40.4764 105.813 63.1296C105.813 73.5031 101.983 82.9644 95.6436 90.1802Z" fill="white"/>
<path d="M95.667 152L64.494 136.995L33.3328 152V112.482H38.0029V144.562L64.494 131.803L90.9969 144.562V112.482H95.667V152Z" fill="#0045FF"/>
<path d="M64.4942 4.678C67.5297 4.678 70.11 10.0928 73.0288 10.5372C73.1806 10.5606 73.3323 10.5723 73.4841 10.5723C76.1344 10.5723 79.5553 7.40294 82.1589 7.40294C82.4391 7.40294 82.7193 7.43802 82.9878 7.51989C85.8599 8.4321 86.5838 14.3615 89.2341 15.683C89.7711 15.952 90.4133 16.0455 91.1138 16.0455C93.0752 16.0455 95.5037 15.2854 97.4651 15.2854C98.3174 15.2854 99.0763 15.4257 99.6601 15.8467C102.089 17.5776 100.909 23.4251 103.034 25.4951C105.147 27.5651 111.137 26.419 112.9 28.7931C114.663 31.1555 111.709 36.3715 113.075 38.9911C114.429 41.5757 120.477 42.3008 121.411 45.1076C122.333 47.8677 117.862 51.9258 118.329 54.8496C118.784 57.6915 124.318 60.2176 124.318 63.1881C124.318 66.1586 118.784 68.6731 118.329 71.5267C117.862 74.4504 122.322 78.5086 121.411 81.2686C120.477 84.0754 114.418 84.7888 113.075 87.3851C111.709 90.0048 114.663 95.2207 112.9 97.5714C111.137 99.9455 105.147 98.7994 103.034 100.869C100.921 102.928 102.089 108.787 99.6718 110.518C99.088 110.939 98.3291 111.079 97.4768 111.079C95.527 111.079 93.0869 110.319 91.1255 110.319C90.4249 110.319 89.7828 110.413 89.2457 110.682C86.5955 112.003 85.8599 117.932 82.9878 118.833C82.7193 118.915 82.4507 118.95 82.1705 118.95C79.5669 118.95 76.1461 115.792 73.4958 115.792C73.344 115.792 73.1806 115.804 73.0405 115.827C70.1217 116.272 67.5531 121.687 64.5175 121.687C61.4703 121.687 58.9017 116.272 55.9829 115.827C55.8194 115.792 55.656 115.781 55.5042 115.781C52.8539 115.781 49.4331 118.938 46.8295 118.938C46.5493 118.938 46.2691 118.903 46.0005 118.821C43.1284 117.909 42.3929 111.991 39.7543 110.658C39.2172 110.389 38.5751 110.296 37.8746 110.296C35.9131 110.296 33.473 111.056 31.5232 111.056C30.6709 111.056 29.912 110.915 29.3283 110.494C26.8998 108.764 28.079 102.916 25.9541 100.846C23.8409 98.776 17.8515 99.9221 16.0885 97.5597C14.3372 95.1973 17.2911 89.9814 15.9251 87.3734C14.5707 84.7771 8.51127 84.0637 7.57725 81.2569C6.66658 78.4969 11.1265 74.4387 10.6595 71.515C10.2042 68.6731 4.67011 66.1586 4.67011 63.1764C4.67011 60.2059 10.2042 57.6798 10.6595 54.8379C11.1265 51.9141 6.66658 47.856 7.57725 45.0959C8.51127 42.2891 14.5591 41.5757 15.9134 38.9795C17.2794 36.3598 14.3256 31.1438 16.0768 28.7931C17.8398 26.419 23.8292 27.5651 25.9424 25.4951C28.0557 23.4251 26.8881 17.5659 29.3166 15.8467C29.9004 15.4257 30.6592 15.2854 31.5115 15.2854C33.4613 15.2854 35.9014 16.0455 37.8629 16.0455C38.5634 16.0455 39.2055 15.952 39.7426 15.683C42.3929 14.3615 43.1284 8.44379 46.0005 7.51989C46.2691 7.43802 46.5376 7.40294 46.8295 7.40294C49.4331 7.40294 52.8539 10.5723 55.5042 10.5723C55.656 10.5723 55.8078 10.5606 55.9595 10.5372C58.8784 10.0928 61.4469 4.678 64.4942 4.678ZM64.4942 0C60.9332 0 58.4464 2.52612 56.6367 4.38563C56.2164 4.81834 55.6326 5.41479 55.2007 5.77733C54.6636 5.55513 53.858 5.1458 53.2859 4.84173C51.4062 3.85935 49.2696 2.73663 46.8295 2.73663C46.0589 2.73663 45.3 2.85358 44.5995 3.07579C41.202 4.15173 39.6375 7.32107 38.4934 9.63668C38.2365 10.163 37.8746 10.8997 37.5827 11.3675C37.0106 11.3325 36.2517 11.1921 35.5045 11.0635C34.2903 10.853 32.9126 10.6191 31.5349 10.6191C29.6201 10.6191 27.9739 11.0986 26.643 12.0459C23.7358 14.1159 23.2455 17.6127 22.8835 20.1622C22.8018 20.7352 22.6967 21.5188 22.5683 22.0451C22.0079 22.1737 21.1673 22.2907 20.5485 22.3725C17.8398 22.7351 14.454 23.1912 12.3641 25.998C10.2275 28.8633 10.858 32.3484 11.325 34.8862C11.4301 35.4476 11.5585 36.196 11.6169 36.7457C11.1265 37.0264 10.4027 37.3655 9.8656 37.6228C7.5072 38.7339 4.28482 40.2659 3.164 43.6341C2.04317 47.0022 3.74776 50.1014 4.98534 52.3702C5.25387 52.8731 5.62748 53.5514 5.86098 54.0543C5.48737 54.452 4.93864 54.9665 4.54168 55.3525C2.61526 57.1301 0 59.5978 0 63.1764C0 66.7668 2.61526 69.2227 4.53 71.0121C4.93864 71.398 5.48738 71.9126 5.84931 72.3102C5.62748 72.8131 5.25387 73.4914 4.97366 73.9943C3.73609 76.2631 2.0315 79.3623 3.15232 82.7305C4.27315 86.0986 7.49552 87.6307 9.8656 88.7417C10.4027 88.999 11.1265 89.3382 11.6169 89.6188C11.5585 90.1568 11.4301 90.917 11.325 91.4666C10.858 94.0045 10.2275 97.4896 12.3524 100.355C14.454 103.173 17.8281 103.629 20.5485 103.992C21.1556 104.074 22.0079 104.191 22.5683 104.319C22.685 104.857 22.8018 105.629 22.8835 106.202C23.2455 108.752 23.7358 112.249 26.643 114.319C27.9739 115.266 29.6201 115.745 31.5466 115.745C32.9243 115.745 34.3019 115.5 35.5162 115.289C36.2634 115.161 37.0223 115.032 37.5944 114.985C37.8862 115.453 38.2482 116.19 38.505 116.716C39.6492 119.032 41.2137 122.201 44.6229 123.277C45.3234 123.499 46.0823 123.616 46.8528 123.616C49.293 123.616 51.4295 122.505 53.3093 121.511C53.8814 121.207 54.6869 120.798 55.224 120.576C55.6443 120.938 56.2398 121.535 56.6601 121.967C58.4697 123.815 60.9566 126.341 64.5175 126.341C68.0668 126.341 70.5536 123.815 72.3633 121.967C72.7836 121.535 73.379 120.938 73.7994 120.576C74.3364 120.786 75.142 121.207 75.7141 121.511C77.5938 122.493 79.7304 123.616 82.1705 123.616C82.9411 123.616 83.7 123.499 84.4122 123.277C87.798 122.201 89.3742 119.032 90.5183 116.716C90.7869 116.178 91.1488 115.453 91.429 114.985C92.0011 115.02 92.7717 115.161 93.5189 115.289C94.7331 115.5 96.1108 115.745 97.4885 115.745C99.4032 115.745 101.049 115.266 102.38 114.319C105.288 112.249 105.778 108.752 106.14 106.202C106.222 105.629 106.327 104.857 106.443 104.319C107.004 104.191 107.844 104.074 108.463 103.992C111.172 103.629 114.558 103.173 116.648 100.355C118.784 97.4896 118.154 94.0162 117.687 91.4783C117.582 90.917 117.442 90.1568 117.395 89.6188C117.885 89.3382 118.609 88.999 119.146 88.7417C121.504 87.6307 124.739 86.0986 125.859 82.7305C126.98 79.3623 125.276 76.2631 124.038 73.9943C123.769 73.4914 123.396 72.8131 123.162 72.3102C123.536 71.9126 124.085 71.398 124.482 71.0121C126.396 69.2227 129.012 66.7668 129.012 63.1764C129.012 59.5861 126.396 57.1301 124.482 55.3291C124.073 54.9431 123.524 54.4286 123.162 54.0309C123.384 53.528 123.758 52.8497 124.038 52.3468C125.276 50.078 126.98 46.9788 125.859 43.6107C124.739 40.2425 121.516 38.7222 119.158 37.5994C118.621 37.3539 117.897 37.003 117.418 36.7223C117.477 36.1843 117.617 35.4242 117.71 34.8628C118.165 32.325 118.808 28.8399 116.671 25.9746C114.581 23.1561 111.195 22.7117 108.487 22.3375C107.868 22.2556 107.027 22.1386 106.467 22.01C106.35 21.4837 106.233 20.7002 106.152 20.1271C105.79 17.5776 105.299 14.0808 102.404 12.0108C101.073 11.0635 99.4266 10.584 97.5002 10.584C96.1225 10.584 94.7448 10.8179 93.5306 11.0284C92.7833 11.157 92.0128 11.2974 91.4407 11.3325C91.1488 10.8647 90.7869 10.1279 90.53 9.6016C89.3858 7.28599 87.8214 4.12834 84.4238 3.0407C83.7117 2.8185 82.9528 2.70155 82.1822 2.70155C79.7421 2.70155 77.6055 3.82427 75.7141 4.80665C75.142 5.11072 74.3481 5.52004 73.811 5.74225C73.3907 5.3797 72.7953 4.78326 72.375 4.35054C70.542 2.52612 68.0551 0 64.4942 0Z" fill="#0045FF"/>
<path d="M64.5059 105.969C40.4082 105.969 20.8054 86.7774 20.8054 63.1885C20.8054 39.5997 40.4082 20.4082 64.5059 20.4082C88.6037 20.4082 108.195 39.5997 108.195 63.1885C108.195 86.7774 88.592 105.969 64.5059 105.969ZM64.5059 25.0745C42.9884 25.0745 25.4755 42.1726 25.4755 63.1768C25.4755 84.1928 42.9884 101.279 64.5059 101.279C86.0235 101.279 103.525 84.1811 103.525 63.1768C103.525 42.1726 86.0235 25.0745 64.5059 25.0745Z" fill="#0045FF"/>
<path d="M81.1547 87.1511L64.4941 78.5903L47.8335 87.1511L51.0208 69.0004L37.4775 56.0891L56.193 53.4344L64.5058 36.9795L72.8186 53.4344L91.534 56.0891L77.979 69.0004L81.1547 87.1511ZM47.6817 59.3637L56.0529 67.3514L54.0564 78.7073L64.4941 73.3393L74.9318 78.7073L72.947 67.3514L81.3182 59.3637L69.7363 57.7264L64.4941 47.3413L59.2519 57.7264L47.6817 59.3637Z" fill="#0045FF"/>
<path d="M46.6895 59.1411L55.551 67.5966L53.4494 79.6191L64.4942 73.9353L75.5507 79.6191L73.4492 67.5966L82.3107 59.1411L70.0517 57.3986L64.4942 46.4053L58.9485 57.3986L46.6895 59.1411Z" fill="#FCBA44"/>
</svg>
